Username,Email,FirstName,LastName,City,ZipCode,State,Title,PhoneNumber,AvgCost,Gender,YearInService,Education,AcceptInsurance,License,AboutMe,VideoURL,TypeOfTherapy,[s]Issues,[s]Insurance,[s]Gender,[s]Language,[s]Faith,[s]LookingFor
test334,tes123@tentaqle.com,John,Doe,Family Therapist,45656,CA,Family Therapist,45454555,22,Male,10 years,"University of California, Los Angeles; CalState Fullerton",Yes,#238474632,Lorem ipsum very long paragraph with html <p> in between to space it out correctly.,http://youtube.com/dafjkkjdakj,Family / Marital; Play Therapy; Coaching; Christian Counseling; ,Family Relationships; Relationship with partner; Blended Family Issues;,Anthem; Aetna; Kaiser,Male; Female;,English; Spanish; Chinese; Japanese;,Christian; Jewish;,Couples; Family; Support Group
test335,tewwe3@tentaqle.com,John,Doe,Family Therapist,45656,CA,Family Therapist,45454555,22,Male,10 years,"University of California, Los Angeles; CalState Fullerton",Yes,#238474632,Lorem ipsum very long paragraph with html <p> in between to space it out correctly.,http://youtube.com/dafjkkjdakj,Family / Marital; Play Therapy; Coaching; Christian Counseling; ,Family Relationships; Relationship with partner; Blended Family Issues;,Anthem; Aetna; Kaiser,Male; Female;,English; Spanish; Chinese; Japanese;,Christian; Jewish;,Couples; Family; Support Group
